{
  "_class": "shapeGroup",
  "clippingMaskMode": 0,
  "do_objectID": "87195207-852B-460B-8AD2-B0F65510D45F",
  "exportOptions": {
    "_class": "exportOptions",
    "exportFormats": [
    ],
    "includedLayerIds": [
    ],
    "layerOptions": 0,
    "shouldTrim": false
  },
  "frame": {
    "_class": "rect",
    "constrainProportions": false,
    "height": 4,
    "width": 191,
    "x": 456,
    "y": 0
  },
  "hasClickThrough": false,
  "hasClippingMask": false,
  "isFlippedHorizontal": false,
  "isFlippedVertical": false,
  "isLocked": false,
  "isVisible": true,
  "layerListExpandedType": 1,
  "layers": [
    {
      "class": "rectangle",
      "id": "ECBD7F5C-6554-4CEF-86F9-9B3367B21EF1"
    }
  ],
  "name": "Rectangle 5 Copy 6",
  "nameIsFixed": false,
  "resizingConstraint": 63,
  "resizingType": 0,
  "rotation": 0,
  "shouldBreakMaskChain": false,
  "style": {
    "sharedObjectID": "09334668-4522-4969-99CC-2D060C8F8009"
  },
  "windingRule": 1
}