{
  "_class": "group",
  "do_objectID": "79BEBD6F-8CBE-4BA4-BF43-70EFA235037B",
  "exportOptions": {
    "_class": "exportOptions",
    "exportFormats": [
    ],
    "includedLayerIds": [
    ],
    "layerOptions": 0,
    "shouldTrim": false
  },
  "frame": {
    "_class": "rect",
    "constrainProportions": false,
    "height": 440,
    "width": 220,
    "x": 0,
    "y": 0
  },
  "hasClickThrough": false,
  "isFlippedHorizontal": false,
  "isFlippedVertical": false,
  "isLocked": false,
  "isVisible": true,
  "layerListExpandedType": 2,
  "layers": [
    {
      "class": "symbolInstance",
      "id": "253101DF-8D45-4EC5-ACBF-B30FBE4797F8"
    },
    {
      "class": "symbolInstance",
      "id": "65BD6496-3DAD-43B1-AF42-53391CC8E3AF"
    },
    {
      "class": "symbolInstance",
      "id": "07D479C4-6174-42CB-BE46-EA2FC0BBA969"
    },
    {
      "class": "symbolInstance",
      "id": "57F45822-0AA9-4843-873B-62D86453473D"
    },
    {
      "class": "symbolInstance",
      "id": "B21C6685-54EF-4BDF-87EC-50A02EBC1117"
    },
    {
      "class": "symbolInstance",
      "id": "A9500080-3731-4225-8938-0D94B1EDCA91"
    },
    {
      "class": "symbolInstance",
      "id": "865AD4CF-9155-417D-BA53-05815B8004AE"
    },
    {
      "class": "symbolInstance",
      "id": "C650E597-2ECE-44A5-96FE-AE120C71F389"
    },
    {
      "class": "symbolInstance",
      "id": "9C586C4B-A7EB-4092-98C3-B8991A1C9D97"
    },
    {
      "class": "group",
      "id": "A00254AD-823E-487A-9F41-D1289791E91F"
    },
    {
      "class": "symbolInstance",
      "id": "3E2BD465-3BEB-4523-9909-09A195089ACE"
    },
    {
      "class": "symbolInstance",
      "id": "C475176C-92E1-49FF-BC8C-FAC7AAE782F5"
    }
  ],
  "name": "top-aligned",
  "nameIsFixed": true,
  "resizingConstraint": 11,
  "resizingType": 0,
  "rotation": 0,
  "shouldBreakMaskChain": false,
  "style": {
    "_class": "style",
    "endDecorationType": 0,
    "miterLimit": 10,
    "startDecorationType": 0
  }
}