{
  "_class": "group",
  "do_objectID": "09901860-8AD0-475E-8379-8491977E0641",
  "exportOptions": {
    "_class": "exportOptions",
    "exportFormats": [
    ],
    "includedLayerIds": [
    ],
    "layerOptions": 0,
    "shouldTrim": false
  },
  "frame": {
    "_class": "rect",
    "constrainProportions": false,
    "height": 2059,
    "width": 1459,
    "x": 343,
    "y": 144
  },
  "hasClickThrough": false,
  "isFlippedHorizontal": false,
  "isFlippedVertical": false,
  "isLocked": false,
  "isVisible": true,
  "layerListExpandedType": 0,
  "layers": [
    {
      "class": "group",
      "id": "29185149-69A0-4CBB-8AB2-03A98A932EDA"
    },
    {
      "class": "symbolInstance",
      "id": "4A2C4F6A-DE43-4DF9-99F5-8343B9BFBB5D"
    },
    {
      "class": "symbolInstance",
      "id": "42D67B9C-BAC2-4113-A7DF-8910DFF013B7"
    },
    {
      "class": "symbolInstance",
      "id": "C73DB199-7374-4044-8503-3870F69EC056"
    },
    {
      "class": "symbolInstance",
      "id": "2A6E9174-CE39-4117-9AEA-C04A0C61A886"
    },
    {
      "class": "symbolInstance",
      "id": "4C988428-2214-4702-A22C-4EACFBF3FB84"
    },
    {
      "class": "symbolInstance",
      "id": "E6AE8DBF-1303-4472-B5FD-55DB2F19A85C"
    },
    {
      "class": "symbolInstance",
      "id": "AADB0357-30F4-40FC-AEE2-D88F0F7F5744"
    },
    {
      "class": "symbolInstance",
      "id": "B62A6113-CF12-402B-9472-B80235161CB5"
    },
    {
      "class": "symbolInstance",
      "id": "3069EBA9-2F4A-44B9-B5BC-8B8C97ACA90E"
    },
    {
      "class": "symbolInstance",
      "id": "C13A66AB-F767-41A8-BFEB-3265783224A4"
    },
    {
      "class": "symbolInstance",
      "id": "2303651C-59A4-4612-BF21-C64AEAF335A7"
    },
    {
      "class": "symbolInstance",
      "id": "F04D0443-A9C7-4AAC-BCCF-1091B5372809"
    },
    {
      "class": "symbolInstance",
      "id": "2530F45A-270C-459C-80DC-3EA6674B21ED"
    },
    {
      "class": "symbolInstance",
      "id": "B57734CE-02B2-4F66-8314-9E88C8D53423"
    },
    {
      "class": "symbolInstance",
      "id": "6F900CAE-3E30-4795-BFB5-3E7D99222A92"
    },
    {
      "class": "symbolInstance",
      "id": "00F9DC7F-89F3-42E0-B0B1-72071F714264"
    },
    {
      "class": "symbolInstance",
      "id": "FA9CE293-56C9-459A-A0B3-528DFD5A3B3A"
    },
    {
      "class": "symbolInstance",
      "id": "FA60CC5F-4A28-4CB6-B851-497B1290744B"
    },
    {
      "class": "symbolInstance",
      "id": "8414539B-9C7F-4329-BF0A-ECBFD31B3183"
    },
    {
      "class": "symbolInstance",
      "id": "3B67A2B8-65D7-4AE2-BEEF-6366DF003E7B"
    },
    {
      "class": "symbolInstance",
      "id": "0453B238-4B59-4E5D-833A-C08A3208E4BE"
    },
    {
      "class": "symbolInstance",
      "id": "5FA1CB2F-8DFC-4FBE-9819-947CEB65B3B1"
    },
    {
      "class": "symbolInstance",
      "id": "EAA9FB13-4B4D-4639-A3DE-24C393C1C122"
    },
    {
      "class": "symbolInstance",
      "id": "457BA3B3-CCF9-427D-9BF6-DEAB07269652"
    },
    {
      "class": "symbolInstance",
      "id": "93A81CE3-F285-4E85-9AEE-B346B1854079"
    },
    {
      "class": "symbolInstance",
      "id": "F6BD3F03-AA69-426F-B900-D2987AD6784C"
    },
    {
      "class": "symbolInstance",
      "id": "9E9ECC3C-42B8-4BC3-88EC-FF821D4B5E20"
    },
    {
      "class": "symbolInstance",
      "id": "0AD0FF7E-27E2-42DE-B8EB-C306A9607996"
    },
    {
      "class": "symbolInstance",
      "id": "02472989-95D5-4B4F-A032-06614F19D8A2"
    },
    {
      "class": "symbolInstance",
      "id": "85DB963C-872C-45B7-AA92-C91D72D7F2F4"
    },
    {
      "class": "symbolInstance",
      "id": "765AAEEF-90CD-4126-94DF-6148E794159B"
    },
    {
      "class": "symbolInstance",
      "id": "E48DE8DA-B1B7-4223-9EEA-6070117312AB"
    },
    {
      "class": "symbolInstance",
      "id": "6C94A92F-D922-4F80-A5F3-2C0F14959447"
    },
    {
      "class": "symbolInstance",
      "id": "150769AF-8CBC-46C3-8400-2A4A462D6452"
    },
    {
      "class": "symbolInstance",
      "id": "C3EB38F8-DA30-411C-88A9-BD3BA07250D3"
    },
    {
      "class": "symbolInstance",
      "id": "627B7207-51C6-4151-9769-41F2430D2F50"
    },
    {
      "class": "symbolInstance",
      "id": "3A8826E0-A21F-40E4-86C9-491A151B71F9"
    },
    {
      "class": "symbolInstance",
      "id": "7B9B8F83-3D50-4F00-8EB7-0EF8F1F5ACD4"
    },
    {
      "class": "symbolInstance",
      "id": "7DCC3705-10E5-4CF7-A1CB-7298DD8C147A"
    },
    {
      "class": "symbolInstance",
      "id": "D7461EE0-5A35-466C-A4D9-BD61BB58E312"
    },
    {
      "class": "symbolInstance",
      "id": "65F43AC2-B28B-4F0A-B1EF-17ED225B91FA"
    },
    {
      "class": "symbolInstance",
      "id": "EC3B49B9-CDD4-434B-A9C3-B9F334080939"
    },
    {
      "class": "symbolInstance",
      "id": "1A42B246-5F77-4E4E-91AB-739BFC75FEB6"
    },
    {
      "class": "symbolInstance",
      "id": "141E6E87-0A2B-4E7C-AF23-CC0828A33904"
    },
    {
      "class": "symbolInstance",
      "id": "00E97A60-BFA3-494A-92E3-3EED8E9E6AC7"
    },
    {
      "class": "symbolInstance",
      "id": "BDE9FB1E-A846-4225-931A-4ABD90EE0B65"
    },
    {
      "class": "symbolInstance",
      "id": "7D3DC0D4-7F63-48A4-8A58-B9203CC98DDD"
    },
    {
      "class": "symbolInstance",
      "id": "F8FAA5F4-6843-4E7A-A9A0-0BD2DB0739A7"
    },
    {
      "class": "symbolInstance",
      "id": "47DFA9A8-20A3-4FBD-AA6D-6D6EAFABD914"
    },
    {
      "class": "symbolInstance",
      "id": "1322E224-7A15-4F4B-BE7E-98B0F3D73B99"
    },
    {
      "class": "symbolInstance",
      "id": "CF1BC55D-2C69-4199-B2AC-C0E5726660A9"
    },
    {
      "class": "symbolInstance",
      "id": "0EE0A9C6-A2D2-4CD3-AE67-E20B944CF516"
    },
    {
      "class": "symbolInstance",
      "id": "A6A053B3-2C06-440B-A199-277B735A5F04"
    },
    {
      "class": "symbolInstance",
      "id": "11604975-4201-464B-9D93-56EF14774A23"
    }
  ],
  "name": "weekenddays",
  "nameIsFixed": true,
  "resizingConstraint": 63,
  "resizingType": 0,
  "rotation": 0,
  "shouldBreakMaskChain": false,
  "style": {
    "_class": "style",
    "endDecorationType": 0,
    "miterLimit": 10,
    "startDecorationType": 0
  }
}