{
  "_class": "group",
  "do_objectID": "2BD95B5C-A6BA-45E7-B90C-AB9FBC5D3AE1",
  "exportOptions": {
    "_class": "exportOptions",
    "exportFormats": [
    ],
    "includedLayerIds": [
    ],
    "layerOptions": 0,
    "shouldTrim": false
  },
  "frame": {
    "_class": "rect",
    "constrainProportions": false,
    "height": 28,
    "width": 96,
    "x": 0.5,
    "y": 0
  },
  "hasClickThrough": false,
  "isFlippedHorizontal": false,
  "isFlippedVertical": false,
  "isLocked": false,
  "isVisible": false,
  "layerListExpandedType": 0,
  "layers": [
    {
      "class": "shapeGroup",
      "id": "290E87A8-FB66-48E7-ABC9-3997735B340D"
    },
    {
      "class": "shapeGroup",
      "id": "D2485989-CABF-4297-AEA8-C41B6009E4B8"
    },
    {
      "class": "text",
      "id": "4CC8D556-9614-45A8-A662-94AB075C6BDC"
    }
  ],
  "name": "global-components/tooltips/top",
  "nameIsFixed": false,
  "resizingConstraint": 63,
  "resizingType": 0,
  "rotation": 0,
  "shouldBreakMaskChain": false,
  "style": {
    "_class": "style",
    "endDecorationType": 0,
    "miterLimit": 10,
    "startDecorationType": 0
  }
}