{
  "_class": "group",
  "do_objectID": "AEC0ADAC-4038-49D8-ADA3-8C4C512FAC99",
  "exportOptions": {
    "_class": "exportOptions",
    "exportFormats": [
    ],
    "includedLayerIds": [
    ],
    "layerOptions": 0,
    "shouldTrim": false
  },
  "frame": {
    "_class": "rect",
    "constrainProportions": false,
    "height": 40,
    "width": 1500,
    "x": 0,
    "y": 0
  },
  "hasClickThrough": false,
  "isFlippedHorizontal": false,
  "isFlippedVertical": false,
  "isLocked": false,
  "isVisible": true,
  "layerListExpandedType": 0,
  "layers": [
    {
      "class": "shapeGroup",
      "id": "1A6C0DAC-5D56-4BEE-8111-39B269E4840D"
    },
    {
      "class": "group",
      "id": "74E1A2C2-A3F8-47A8-B719-F3804D3B7CFE"
    },
    {
      "class": "group",
      "id": "21E0F2D8-1C70-4E85-9248-7131B774BD6F"
    }
  ],
  "name": "topbar",
  "nameIsFixed": true,
  "resizingConstraint": 63,
  "resizingType": 0,
  "rotation": 0,
  "shouldBreakMaskChain": false,
  "style": {
    "_class": "style",
    "endDecorationType": 0,
    "miterLimit": 10,
    "startDecorationType": 0
  }
}