{
  "_class": "shapeGroup",
  "clippingMaskMode": 0,
  "do_objectID": "0D457E11-0C0A-439E-9D96-270F900D21E3",
  "exportOptions": {
    "_class": "exportOptions",
    "exportFormats": [
    ],
    "includedLayerIds": [
    ],
    "layerOptions": 0,
    "shouldTrim": false
  },
  "frame": {
    "_class": "rect",
    "constrainProportions": false,
    "height": 32,
    "width": 32,
    "x": 0,
    "y": 0
  },
  "hasClickThrough": false,
  "hasClippingMask": false,
  "isFlippedHorizontal": false,
  "isFlippedVertical": false,
  "isLocked": false,
  "isVisible": true,
  "layerListExpandedType": 0,
  "layers": [
    {
      "class": "rectangle",
      "id": "3E7067BD-2FA4-46EA-A0A6-4010C5C9A208"
    }
  ],
  "name": "label-fill/teal",
  "nameIsFixed": true,
  "resizingConstraint": 63,
  "resizingType": 0,
  "rotation": 0,
  "shouldBreakMaskChain": false,
  "style": {
    "sharedObjectID": "8651890C-6F7D-4821-8084-E6D786E763A8"
  },
  "windingRule": 1
}