{
  "_class": "group",
  "do_objectID": "229C39A5-5E66-46B2-9167-4DF1F26C91A3",
  "exportOptions": {
    "_class": "exportOptions",
    "exportFormats": [
    ],
    "includedLayerIds": [
    ],
    "layerOptions": 0,
    "shouldTrim": false
  },
  "frame": {
    "_class": "rect",
    "constrainProportions": false,
    "height": 28,
    "width": 527,
    "x": 607,
    "y": 302
  },
  "hasClickThrough": false,
  "isFlippedHorizontal": false,
  "isFlippedVertical": false,
  "isLocked": false,
  "isVisible": true,
  "layerListExpandedType": 2,
  "layers": [
    {
      "class": "shapeGroup",
      "id": "FB19DC66-9CE1-48D0-8E5D-41C7CAF22CD4"
    },
    {
      "class": "shapeGroup",
      "id": "B6F95BE0-E30D-4F99-9D7B-F2AE0F4BEB8A"
    },
    {
      "class": "text",
      "id": "0013AA90-229B-4D7D-8693-D3B44347889F"
    }
  ],
  "name": "new_epic",
  "nameIsFixed": true,
  "resizingConstraint": 63,
  "resizingType": 0,
  "rotation": 0,
  "shouldBreakMaskChain": false,
  "style": {
    "_class": "style",
    "endDecorationType": 0,
    "miterLimit": 10,
    "startDecorationType": 0
  }
}