<?xml version="1.0" encoding="UTF-8"?>
<svg width="16px" height="16px" viewBox="0 0 16 16" version="1.1" xmlns="http://www.w3.org/2000/svg" xmlns:xlink="http://www.w3.org/1999/xlink">
    <!-- Generator: Sketch 64 (93537) - https://sketch.com -->
    <title>icn/pencil</title>
    <desc>Created with Sketch.</desc>
    <g id="icn/pencil" stroke="none" stroke-width="1" fill="none" fill-rule="evenodd">
        <path d="M5,15 L1,15 L1,11 L10.4139,1.58609 C11.195,0.805042 12.4613,0.805044 13.2423,1.58609 L14.4139,2.75767 C15.195,3.53871 15.195,4.80504 14.4139,5.58609 L5,15 Z M3.33999,11.4884 L4.51157,12.66 L10.4157,6.75586 L9.24414,5.58429 L3.33999,11.4884 Z M12.9997,4.17188 L11.8299,5.34165 L10.6584,4.17008 L11.8281,3.0003 L12.9997,4.17188 Z" id="icon" fill="#000000"></path>
    </g>
</svg>