{
  "_class": "symbolInstance",
  "do_objectID": "2C081EE3-B6C8-4E1D-BA90-3E7E68F46C15",
  "exportOptions": {
    "_class": "exportOptions",
    "exportFormats": [
    ],
    "includedLayerIds": [
    ],
    "layerOptions": 0,
    "shouldTrim": false
  },
  "frame": {
    "_class": "rect",
    "constrainProportions": false,
    "height": 32,
    "width": 84,
    "x": 116,
    "y": 0
  },
  "horizontalSpacing": 0,
  "isFlippedHorizontal": false,
  "isFlippedVertical": false,
  "isLocked": false,
  "isVisible": true,
  "layerListExpandedType": 0,
  "masterInfluenceEdgeMaxXPadding": 8,
  "masterInfluenceEdgeMaxYPadding": 0,
  "masterInfluenceEdgeMinXPadding": 0,
  "masterInfluenceEdgeMinYPadding": 0,
  "name": "topbar/molecules/tab__dropdown--active",
  "nameIsFixed": false,
  "overrides": {
    "0": {
    },
    "CD9D2508-F199-487B-8B17-0C732D4AB604": "Projects",
    "ObjectId": "overrideText"
  },
  "resizingConstraint": 63,
  "resizingType": 0,
  "rotation": 0,
  "shouldBreakMaskChain": false,
  "style": {
    "_class": "style",
    "endDecorationType": 0,
    "miterLimit": 10,
    "startDecorationType": 0
  },
  "symbolID": "F7978376-E419-45EE-B58A-914A2818737F",
  "verticalSpacing": 0
}