<?xml version="1.0" encoding="UTF-8"?>
<svg width="16px" height="16px" viewBox="0 0 16 16" version="1.1" xmlns="http://www.w3.org/2000/svg" xmlns:xlink="http://www.w3.org/1999/xlink">
    <title>icn/chevron-down</title>
    <g id="icn/chevron-down" stroke="none" stroke-width="1" fill="none" fill-rule="evenodd">
        <path d="M7.29289,10.7071 C7.68342,11.0976 8.31658,11.0976 8.70711,10.7071 L11.7071,7.70711 C12.0976,7.31658 12.0976,6.68342 11.7071,6.29289 C11.3166,5.90237 10.6834,5.90237 10.2929,6.29289 L8,8.58579 L5.70711,6.29289 C5.31658,5.90237 4.68342,5.90237 4.29289,6.29289 C3.90237,6.68342 3.90237,7.31658 4.29289,7.70711 L7.29289,10.7071 Z" id="icon" fill="#000000"></path>
    </g>
</svg>