{
  "_class": "group",
  "do_objectID": "1598A263-7899-4A03-9E08-90372230E919",
  "exportOptions": {
    "_class": "exportOptions",
    "exportFormats": [
    ],
    "includedLayerIds": [
    ],
    "layerOptions": 0,
    "shouldTrim": false
  },
  "frame": {
    "_class": "rect",
    "constrainProportions": false,
    "height": 24,
    "width": 374,
    "x": 927,
    "y": 210
  },
  "hasClickThrough": false,
  "isFlippedHorizontal": false,
  "isFlippedVertical": false,
  "isLocked": false,
  "isVisible": true,
  "layerListExpandedType": 2,
  "layers": [
    {
      "class": "shapeGroup",
      "id": "1D2E2174-4F6B-47F5-8F95-7571001D7BF0"
    },
    {
      "class": "shapeGroup",
      "id": "B2A2B02C-DC1A-4CBF-BEFB-DA1BB052A32D"
    },
    {
      "class": "group",
      "id": "D73B367A-6945-4F92-B52D-0E7ECA7CBDFD"
    },
    {
      "class": "text",
      "id": "4C42E98B-AB88-4102-A43D-D538434AA350"
    }
  ],
  "name": "epic copy",
  "nameIsFixed": true,
  "resizingConstraint": 63,
  "resizingType": 0,
  "rotation": 0,
  "shouldBreakMaskChain": false,
  "style": {
    "_class": "style",
    "endDecorationType": 0,
    "miterLimit": 10,
    "startDecorationType": 0
  }
}