{
  "_class": "group",
  "do_objectID": "8D707C0C-1CBB-4707-9B8F-F90EABC47E24",
  "exportOptions": {
    "_class": "exportOptions",
    "exportFormats": [
    ],
    "includedLayerIds": [
    ],
    "layerOptions": 0,
    "shouldTrim": false
  },
  "frame": {
    "_class": "rect",
    "constrainProportions": false,
    "height": 24,
    "width": 480,
    "x": 607,
    "y": 806
  },
  "hasClickThrough": false,
  "isFlippedHorizontal": false,
  "isFlippedVertical": false,
  "isLocked": false,
  "isVisible": true,
  "layerListExpandedType": 2,
  "layers": [
    {
      "class": "shapeGroup",
      "id": "D9F15AD4-10AF-497F-A862-AA5A6CBD1EA6"
    },
    {
      "class": "shapeGroup",
      "id": "6AB8A20B-FED1-40AE-A4E4-1F78897DCC1A"
    },
    {
      "class": "shapeGroup",
      "id": "0F4D9EB8-C4F3-44F5-8573-5C6468A4C057"
    },
    {
      "class": "text",
      "id": "5B2295B6-E709-45D5-AAFB-86D30DC178CE"
    }
  ],
  "name": "new_epic copy 8",
  "nameIsFixed": true,
  "resizingConstraint": 63,
  "resizingType": 0,
  "rotation": 0,
  "shouldBreakMaskChain": false,
  "style": {
    "_class": "style",
    "endDecorationType": 0,
    "miterLimit": 10,
    "shadows": [
      {
        "_class": "shadow",
        "blurRadius": 2,
        "color": {
          "_class": "color",
          "alpha": 0.5,
          "blue": 0.7294117647058823,
          "green": 0.7294117647058823,
          "red": 0.7294117647058823
        },
        "contextSettings": {
          "_class": "graphicsContextSettings",
          "blendMode": 0,
          "opacity": 1
        },
        "isEnabled": true,
        "offsetX": 0,
        "offsetY": 1,
        "spread": 0
      }
    ],
    "startDecorationType": 0
  }
}