{
  "_class": "group",
  "do_objectID": "663715F4-9FC7-4F67-BDF1-9EA481614459",
  "exportOptions": {
    "_class": "exportOptions",
    "exportFormats": [
    ],
    "includedLayerIds": [
    ],
    "layerOptions": 0,
    "shouldTrim": false
  },
  "frame": {
    "_class": "rect",
    "constrainProportions": false,
    "height": 50,
    "width": 100,
    "x": 110,
    "y": 0
  },
  "hasClickThrough": false,
  "isFlippedHorizontal": false,
  "isFlippedVertical": false,
  "isLocked": false,
  "isVisible": true,
  "layerListExpandedType": 0,
  "layers": [
    {
      "class": "shapeGroup",
      "id": "9739101D-617D-4FA5-A1F5-237AF567DF4A"
    },
    {
      "class": "shapeGroup",
      "id": "FC8F1B84-7896-4F50-B31E-F7E23011E9E2"
    },
    {
      "class": "group",
      "id": "9D80E91F-B61D-45C5-A9D5-E7B1D17CB5F1"
    },
    {
      "class": "text",
      "id": "F5428B11-91B6-45E3-9DDF-475DAC3F8AD4"
    }
  ],
  "name": "tab-commits",
  "nameIsFixed": true,
  "resizingConstraint": 63,
  "resizingType": 0,
  "rotation": 0,
  "shouldBreakMaskChain": false,
  "style": {
    "_class": "style",
    "endDecorationType": 0,
    "miterLimit": 10,
    "startDecorationType": 0
  }
}