{
  "_class": "shapeGroup",
  "clippingMaskMode": 0,
  "do_objectID": "D5814FEF-3AD3-4507-9311-075C0E411D54",
  "exportOptions": {
    "_class": "exportOptions",
    "exportFormats": [
    ],
    "includedLayerIds": [
    ],
    "layerOptions": 0,
    "shouldTrim": false
  },
  "frame": {
    "_class": "rect",
    "constrainProportions": false,
    "height": 24,
    "width": 71,
    "x": 456,
    "y": 4
  },
  "hasClickThrough": false,
  "hasClippingMask": false,
  "isFlippedHorizontal": false,
  "isFlippedVertical": false,
  "isLocked": false,
  "isVisible": true,
  "layerListExpandedType": 1,
  "layers": [
    {
      "class": "rectangle",
      "id": "48760EF8-FF37-4435-8AFF-742B768D1D41"
    }
  ],
  "name": "Rectangle 4",
  "nameIsFixed": false,
  "resizingConstraint": 63,
  "resizingType": 0,
  "rotation": 0,
  "shouldBreakMaskChain": false,
  "style": {
    "sharedObjectID": "ACD9DAB8-0583-4C22-8AF7-13102A44FFA5"
  },
  "windingRule": 1
}